@c400
02 00 11 00 00 00 7A C7 00 00 DA C9 00 00 3C C4 
00 00 00 CA 00 00 00 00 00 00 0E D7 00 00 DE D2 
00 00 DE D7 00 00 00 00 2A 00 00 00 00 C4 00 00 
2A 20 00 00 26 C4 00 00 00 20 00 00 B2 40 80 5A 
CC 01 D2 43 04 02 D2 C3 02 02 E2 43 05 02 E2 43 
03 02 92 C3 30 01 1E 14 3D 40 44 28 1E 43 1D 83 
0E 73 FD 23 0D 93 FB 23 1D 16 03 43 E2 C3 03 02 
1E 14 3D 40 44 28 1E 43 1D 83 0E 73 FD 23 0D 93 
FB 23 1D 16 03 43 E2 D3 03 02 1E 14 3D 40 44 28 
1E 43 1D 83 0E 73 FD 23 0D 93 FB 23 1D 16 03 43 
E2 C3 03 02 F2 D0 80 00 03 02 F2 D0 80 00 07 02 
F2 D0 80 00 19 02 F2 D0 80 00 1B 02 F2 F0 7F 00 
1D 02 8C 00 DC C6 8D 00 E6 C6 0E 43 B0 13 C6 C6 
C2 43 15 20 03 43 32 D2 03 43 B0 13 EE C6 D2 93 
15 20 15 20 32 C2 03 43 5F 42 14 20 1F 83 0D 24 
1F 83 05 24 3F 80 A8 00 05 24 D2 E3 02 02 E2 E3 
03 02 05 3C B0 13 AE C6 02 3C D2 E3 02 02 C2 43 
15 20 03 43 32 D2 03 43 E0 3F 03 43 3A 14 8F 00 
00 00 9F 00 00 00 04 24 8C 00 00 00 B0 13 8C C5 
40 18 1A 42 CC 01 40 18 B2 40 80 5A CC 01 8F 00 
36 C7 9F 00 3A C7 26 24 89 00 3A C7 8F 00 42 C7 
D9 0F 20 24 CE 09 0F 19 4E 10 0E 4E 0C 4F 0F 19 
4F 10 0C 89 0D 4F 0D 7E B0 13 2E C6 C8 0C C7 0D 
0C 09 7F 4C 4F 0E 4F 05 00 18 5F 4F 36 C7 A9 00 
04 00 0D 09 4F 13 A9 00 04 00 18 83 07 73 F0 23 
08 93 EE 23 7A C2 3A D0 08 5A 40 18 82 4A CC 01 
B0 13 FE C6 8F 00 00 00 9F 00 00 00 09 24 8A 00 
00 00 03 3C 6A 13 AA 00 04 00 9A 00 00 00 FA 23 
37 16 10 01 2A 14 C9 0C 18 49 02 00 0A 43 2F 3C 
CC 0A 0D 43 3E 40 0C 00 0F 43 B0 13 8A C6 0F 18 
4D 5D 00 18 4D DC ED 09 CC 0D 1E 4C 0C 00 1F 4C 
0E 00 3D 0C 04 00 3B 0C 08 00 CC 0B 0F 93 12 20 
0E 93 10 20 8F 00 36 C7 9F 00 3A C7 0F 24 6F 4D 
4F 06 00 18 5F 4F 36 C7 AD 00 01 00 CC 0D CD 0B 
4F 13 02 3C B0 13 3C C6 18 49 02 00 1A 53 0A 98 
CF 2B 28 16 10 01 5D 01 5C 00 5D 01 5C 00 5D 01 
5C 00 5D 01 5C 00 5D 01 5C 00 5D 01 5C 00 5D 01 
5C 00 5D 01 5C 00 5D 01 5C 00 5D 01 5C 00 5D 01 
5C 00 5D 01 5C 00 5D 01 5C 00 5D 01 5C 00 5D 01 
5C 00 10 01 1A 14 C9 0C 0F 93 02 20 0E 93 0D 24 
0A 43 0B 43 A9 00 01 00 F9 4D FF FF 1A 53 0B 63 
0B 9F F8 2B 02 20 0A 9E F5 2B 19 16 10 01 1F 4C 
01 00 1E 4C 03 00 0E 93 02 20 0F 93 09 24 AD 00 
01 00 CD 43 FF FF 1F 83 0E 73 F9 23 0F 93 F7 23 
10 01 02 12 32 C2 03 43 82 4C D0 04 82 4D D2 04 
82 4E E0 04 82 4F E2 04 1C 42 E4 04 1D 42 E6 04 
32 41 03 43 10 01 B2 40 DE C0 00 20 D2 D3 02 20 
32 C2 03 43 B2 40 04 A5 20 01 FF 3F 03 43 60 0C 
08 20 60 0D 0C 20 60 0E 10 20 8C 00 08 20 1F 42 
7A FF C0 0F C2 4C 14 20 D2 43 15 20 10 01 DC 42 
14 20 00 00 10 01 1F 42 7C FF C0 0F 03 43 FF 3F 
03 43 1C 43 10 01 10 01 81 00 00 30 B0 13 FA C6 
0C 93 02 24 B0 13 E4 C4 0C 43 B0 13 04 C4 B0 13 
F4 C6 C2 43 1D 02 E2 E3 03 02 00 13 32 D0 10 00 
FD 3F 03 43 FF 3F 03 43 00 00 0E 00 00 00 66 C6 
00 00 30 C7 00 00 08 20 00 00 B2 40 80 5A CC 01 
D2 D3 04 02 D2 D3 02 02 92 C3 30 01 1E 14 3D 40 
44 28 1E 43 1D 83 0E 73 FD 23 0D 93 FB 23 1D 16 
03 43 D2 C3 02 02 1E 14 3D 40 44 28 1E 43 1D 83 
0E 73 FD 23 0D 93 FB 23 1D 16 03 43 D2 D3 02 02 
1E 14 3D 40 44 28 1E 43 1D 83 0E 73 FD 23 0D 93 
FB 23 1D 16 03 43 D2 C3 02 02 F2 D0 80 00 03 02 
F2 D0 80 00 07 02 F2 D0 80 00 19 02 F2 D0 80 00 
1B 02 F2 F0 7F 00 1D 02 B2 40 10 00 82 03 B2 40 
E7 03 92 03 B2 40 10 01 80 03 03 43 32 D0 D8 00 
03 43 03 43 0C 43 10 01 B2 40 DE C0 00 20 D2 D3 
02 20 32 C2 03 43 B2 40 04 A5 20 01 FF 3F 03 43 
03 43 FF 3F 03 43 1C 43 10 01 81 00 00 30 B0 13 
C0 C4 0C 43 B0 13 04 C4 1C 43 B0 13 BA C4 4F 14 
C2 43 1D 02 B0 13 A2 C4 4B 16 00 13 D2 E3 02 02 
92 C3 82 03 00 13 FF 3F 03 43 00 00 06 00 01 00 
2E 00 02 00 06 00 03 00 47 00 04 00 D3 00 05 00 
91 00 06 00 FF 00 07 00 00 00 08 00 05 00 0A 00 
00 00 0B 00 06 00 0D 00 22 00 0E 00 B8 00 0F 00 
9D 00 10 00 CA 00 11 00 83 00 12 00 13 00 13 00 
22 00 14 00 F8 00 15 00 35 00 16 00 07 00 17 00 
30 00 18 00 18 00 19 00 16 00 1B 00 43 00 20 00 
FB 00 23 00 E9 00 24 00 2A 00 25 00 00 00 26 00 
1F 00 2C 00 81 00 2D 00 35 00 2E 00 09 00 00 00 
06 00 01 00 2E 00 02 00 06 00 04 00 D3 00 05 00 
91 00 06 00 FF 00 07 00 00 00 08 00 45 00 0B 00 
0C 00 0D 00 23 00 0E 00 31 00 0F 00 3B 00 10 00 
2D 00 11 00 3B 00 12 00 13 00 15 00 62 00 18 00 
18 00 19 00 1D 00 1A 00 1C 00 1B 00 C7 00 1C 00 
00 00 1D 00 B0 00 20 00 FB 00 23 00 EA 00 24 00 
2A 00 25 00 00 00 26 00 1F 00 2C 00 88 00 2D 00 
31 00 2E 00 09 00 00 00 06 00 01 00 2E 00 02 00 
06 00 03 00 47 00 04 00 D3 00 05 00 91 00 06 00 
FF 00 07 00 00 00 08 00 05 00 0B 00 06 00 0D 00 
22 00 0E 00 B8 00 0F 00 9D 00 10 00 F5 00 11 00 
83 00 12 00 13 00 13 00 21 00 14 00 F8 00 15 00 
15 00 18 00 18 00 19 00 16 00 20 00 FB 00 23 00 
E9 00 24 00 2A 00 25 00 00 00 26 00 1F 00 2C 00 
81 00 2D 00 35 00 2E 00 09 00 D8 C4 F0 C4 F0 C4 
F0 C4 F0 C4 F0 C4 F0 C4 F0 C4 F0 C4 F0 C4 F0 C4 
F0 C4 F0 C4 F0 C4 F0 C4 E6 C4 F0 C4 F0 C4 C4 C4 
1A C7 2C C7 2C C7 2C C7 2C C7 24 C7 2C C7 2C C7 
2C C7 2C C7 2C C7 2C C7 2C C7 2C C7 2C C7 2C C7 
2C C7 2C C7 00 C7 00 C4 03 C4 FF EF 04 C4 DA EF 
F0 00 26 00 04 C4 DA EF 3E 03 26 00 0A 14 F1 03 
B2 40 80 5A CC 01 32 D0 40 00 B2 40 B6 00 82 01 
B2 40 F3 00 84 01 00 3C 03 43 32 C0 40 00 B0 13 
B2 CD B2 40 00 01 88 01 8C 00 2C CA 8D 00 30 CA 
8E 00 2A 20 6F 43 B0 13 E8 D0 82 4C 1A 20 8C 00 
34 CA 8D 00 38 CA 8E 00 32 20 B0 13 E8 D0 82 4C 
1C 20 C2 43 19 20 C2 43 18 20 B0 13 56 D7 F2 D2 
03 02 D2 C3 02 02 D2 D3 04 02 F2 D2 07 02 F2 D2 
19 02 F2 C2 1D 02 F2 D2 1B 02 E2 D3 03 02 E2 D3 
05 02 92 C3 30 01 F2 C2 1D 02 03 43 32 D0 18 00 
03 43 32 C2 03 43 C2 93 19 20 F5 27 B0 13 44 D8 
4C 93 F1 27 7C 40 AA 00 B0 13 24 CF B0 13 40 D8 
1E 14 3D 40 44 28 1E 43 1D 83 0E 73 FD 23 0D 93 
FB 23 1D 16 03 43 7C 40 19 00 B0 13 1E D5 D2 E3 
02 02 1E 14 3D 40 64 C9 3E 42 1D 83 0E 73 FD 23 
0D 93 FB 23 1D 16 03 43 D2 E3 02 02 1E 14 3D 40 
64 C9 3E 42 1D 83 0E 73 FD 23 0D 93 FB 23 1D 16 
03 43 D2 E3 02 02 1E 14 3D 40 64 C9 3E 42 1D 83 
0E 73 FD 23 0D 93 FB 23 1D 16 03 43 D2 E3 02 02 
4C 4C 3C F0 F0 FF 3C 90 A0 00 87 20 7C 40 15 00 
B0 13 1E D5 4C 93 A7 23 C2 93 18 20 2A 24 4A 43 
6A 93 19 2C 4F 4A 5F 02 40 18 1F 4F 38 CA 81 43 
00 00 4E 4A 5E 02 40 18 1C 4E 34 CA 0D 43 4E 4A 
5E 06 00 18 5E 4E 32 20 B0 13 C8 CF 4C 93 03 20 
5A 53 6A 93 E7 2B 2F 43 81 43 00 00 40 18 1C 42 
26 CA 0D 43 8E 00 1C 20 B0 13 C8 CF 4C 93 7B 23 
29 3C 4A 43 6A 93 19 2C 4F 4A 5F 02 40 18 1F 4F 
30 CA 81 43 00 00 4E 4A 5E 02 40 18 1C 4E 2C CA 
0D 43 4E 4A 5E 06 00 18 5E 4E 2A 20 B0 13 C8 CF 
4C 93 03 20 5A 53 6A 93 E7 2B 2F 43 81 43 00 00 
40 18 1C 42 26 CA 0D 43 8E 00 1A 20 B0 13 C8 CF 
4C 93 51 23 7C 40 1C 00 B0 13 1E D5 1E 14 3D 40 
64 C9 3E 42 1D 83 0E 73 FD 23 0D 93 FB 23 1D 16 
03 43 D2 E3 02 02 1E 14 3D 40 64 C9 3E 42 1D 83 
0E 73 FD 23 0D 93 FB 23 1D 16 03 43 D2 E3 02 02 
1E 14 3D 40 64 C9 3E 42 1D 83 0E 73 FD 23 0D 93 
FB 23 1D 16 03 43 D2 E3 02 02 C2 43 19 20 D2 E3 
18 20 C2 93 19 20 1F 27 29 3F 03 43 B1 00 0E 00 
CD 0C CC 01 3E 40 0C 00 0F 43 B0 13 1E D6 3C 40 
40 1F B0 13 F4 D7 82 43 1E 20 B2 90 0A 00 1E 20 
7B 2C F2 40 80 00 00 20 D2 41 01 00 01 20 D2 41 
02 00 02 20 E1 93 01 00 0D 2C D1 41 0A 00 0D 00 
D2 41 0D 00 03 20 D1 41 0B 00 0C 00 D2 41 0C 00 
04 20 33 3C D2 41 03 00 03 20 D2 41 04 00 04 20 
D2 41 05 00 05 20 82 43 20 20 0D 3C 1F 42 20 20 
00 18 5F 51 06 00 3E 40 06 00 1E 52 20 20 EE 4F 
00 20 92 53 20 20 5F 41 01 00 2F 82 82 9F 20 20 
ED 2B D1 41 0A 00 0D 00 3F 40 06 00 1F 52 20 20 
DF 41 0D 00 00 20 D1 41 0B 00 0C 00 3F 40 07 00 
1F 52 20 20 DF 41 0C 00 00 20 8C 00 00 20 3D 40 
18 00 B0 13 AC D7 0C 43 B0 13 20 D4 B0 13 1A D8 
3C 40 00 04 B0 13 20 D4 82 4C 26 20 B2 90 00 04 
26 20 05 28 B0 13 90 D7 F2 43 28 20 0F 3C B2 40 
18 00 24 20 8C 00 00 20 8D 00 24 20 B0 13 EC D1 
D2 42 00 20 28 20 B2 40 0A 00 1E 20 92 53 1E 20 
B2 90 0A 00 1E 20 85 2B B0 13 3A D8 A1 00 0E 00 
10 01 4A 14 3E 43 39 43 07 43 08 43 4B 43 B2 40 
00 01 80 01 92 C3 8E 01 92 B3 8E 01 FB 23 0D 14 
3D 40 3C 1F 1D 83 FE 23 0D 16 00 3C B2 B0 00 03 
8E 01 03 24 92 B3 8E 01 F9 27 1A 42 80 01 16 42 
82 01 CD 0E 3E 40 FF 01 0E FA CF 06 5F 0F 3F F0 
07 00 3E 90 00 01 11 28 CC 0E 3C 80 00 01 3D 90 
00 01 09 28 1F 53 5F 0E CD 06 3D F0 8F FF 0F DD 
82 4F 82 01 14 3C 5B 43 12 3C 3C 40 00 01 0C 8E 
3D 93 05 24 3D 90 00 01 02 28 5B 43 08 3C 1F 83 
5F 0E CD 06 3D F0 8F FF 0F DD 82 4F 82 01 0C 99 
03 2C C7 0A C8 06 C9 0C 4B 93 B1 27 82 47 80 01 
82 48 82 01 B2 B0 00 03 8E 01 FC 23 46 16 10 01 
3A 14 F1 03 CA 0C 6C 43 B0 13 A0 D5 7C 40 30 00 
B0 13 BA D6 0D 14 3D 40 D2 14 1D 83 FE 23 0D 16 
4A 4A 1A 83 19 24 1A 83 10 24 1A 83 07 24 78 40 
1D 00 89 00 66 C9 37 40 0C 00 14 3C 78 40 1E 00 
89 00 EE C8 37 40 C4 09 0D 3C 78 40 21 00 89 00 
6A C8 37 40 80 01 06 3C 78 40 1D 00 89 00 66 C9 
37 40 0C 00 4A 43 14 3C 4F 4A 5F 06 4F 0E 4F 0D 
EF 09 D1 4F 02 00 00 00 4F 4A 5F 06 4F 0E 4F 0D 
EF 09 6D 4F 4C 43 CE 01 1F 43 B0 13 60 D5 5A 53 
4A 98 EA 2B F2 40 C5 00 22 20 7C 40 40 00 7D 40 
3E 00 8E 00 22 20 1F 43 B0 13 60 D5 CC 07 E1 03 
37 16 10 01 0A 14 CA 0C 3C 40 40 1F B0 13 F4 D7 
82 43 1E 20 B2 90 0A 00 1E 20 42 2C C2 4A 00 20 
82 43 20 20 B2 90 17 00 20 20 0B 2C 1F 43 1F 52 
20 20 CF 43 00 20 92 53 20 20 B2 90 17 00 20 20 
F5 2B 8C 00 00 20 3D 40 18 00 B0 13 AC D7 0C 43 
B0 13 20 D4 B0 13 1A D8 3C 40 00 04 B0 13 20 D4 
82 4C 26 20 B2 90 00 04 26 20 05 28 B0 13 90 D7 
F2 43 28 20 0F 3C B2 40 18 00 24 20 8C 00 00 20 
8D 00 24 20 B0 13 EC D1 F2 40 A5 00 28 20 B2 40 
0A 00 1E 20 92 53 1E 20 B2 90 0A 00 1E 20 BE 2B 
B0 13 3A D8 0A 16 10 01 5A 14 B1 00 0C 00 CA 0F 
C5 0E C8 0C C7 0D 19 41 28 00 09 93 02 20 0A 93 
37 24 09 93 05 20 3A 90 11 00 02 2C C6 0A 02 3C 
36 40 10 00 F1 40 10 00 02 00 71 05 06 00 CF 06 
6F 52 C1 4F 01 00 C1 47 05 00 CF 08 8F 10 C1 4F 
04 00 C1 48 03 00 CC 01 B0 13 54 D3 81 4C 0A 00 
CC 01 B0 13 8C CC 27 93 05 28 03 20 38 90 00 3F 
01 28 03 43 B0 13 2E D8 4C 93 0A 20 0A 86 09 73 
08 56 07 63 0F 46 E5 0F 09 93 CB 23 0A 93 C9 23 
A1 00 0C 00 55 16 10 01 3A 14 07 4F 07 ED 0A 4F 
5A 02 8A 10 4A 4A 0A 93 38 24 7F D0 80 00 0B 4D 
5B 02 8B 10 4B 4B 0B 93 2B 24 7D D0 80 00 0B 8A 
3B 50 7F 00 3A 40 18 00 08 43 09 43 0C 8E 0D 7F 
03 2C 0C 5E 0D 6F 12 C3 08 68 09 69 5C 02 0D 6D 
1A 83 F4 23 49 93 03 30 1A 53 1B 83 EF 3F 0C 7E 
0D 7F 08 63 49 63 0B 63 1B 93 0C 38 3B 90 FF 00 
0C 34 49 59 8B 10 09 DB 57 02 59 00 0D 49 0C 48 
37 16 10 01 0C 43 0D 43 FB 3F 3C 40 FF FE 3D 43 
57 02 5D 00 F5 3F 03 43 3A 14 B2 43 C4 01 40 18 
18 42 28 CA 40 18 82 98 2A CA 34 28 49 43 01 3C 
59 53 49 9F 26 2C 4B 49 5B 02 4B 0E 4B 0D EB 0C 
28 9B F6 2B 4B 49 5B 02 4B 0E 4B 0D EB 0C 4A 49 
5A 02 4A 0E 4A 0D EA 0D 2A 4A 2A 5B 08 9A E8 2F 
4B 49 5B 06 4B 0E 4B 0D EB 0E 4A 49 5A 02 4A 0E 
4A 0D EA 0C C7 08 27 8A 0A 47 00 18 6A 5B E2 4A 
C2 01 49 9F 02 20 F2 43 C2 01 18 53 40 18 82 98 
2A CA CC 2F 1C 42 C4 01 37 16 10 01 7C B0 80 FF 
1B 20 7C B0 40 00 09 20 92 C3 3C 05 6F 4D 82 4F 
2E 05 92 B3 3C 05 FD 27 30 3C 0F 43 0F 9E 2D 2C 
92 C3 3C 05 6C 4D 82 4C 2E 05 92 B3 3C 05 FD 27 
AD 00 01 00 1F 53 F2 3F 7C B0 40 00 0C 20 92 C3 
3C 05 82 43 2E 05 92 B3 3C 05 FD 27 1F 42 2C 05 
CD 4F 00 00 12 3C 0F 43 0E 3C 92 C3 3C 05 82 43 
2E 05 92 B3 3C 05 FD 27 1C 42 2C 05 CD 4C 00 00 
AD 00 01 00 1F 53 0F 9E F0 2B 10 01 1A 14 F1 03 
CA 0D C9 0C 7C 40 C0 00 7D 40 3B 00 CE 01 AE 00 
01 00 1F 43 B0 13 60 D5 F1 F0 7F 00 01 00 C1 93 
01 00 1B 24 5F 41 01 00 8A 9F 00 00 16 28 5F 41 
01 00 7C 40 C0 00 7D 40 3F 00 CE 09 B0 13 60 D5 
5F 41 01 00 8A 4F 00 00 7C 40 C0 00 7D 40 38 00 
CE 01 1F 43 B0 13 60 D5 08 3C 8A 43 00 00 C1 43 
00 00 7C 40 3A 00 B0 13 BA D6 6C 41 3C F0 80 FF 
E1 03 19 16 10 01 3A 14 40 18 1A 42 CC 01 40 18 
B2 40 80 5A CC 01 8F 00 1A C4 9F 00 26 C4 25 24 
89 00 2C C4 8F 00 3C C4 D9 0F 1F 24 CE 09 0F 19 
4E 10 0E 4E 0C 4F 0F 19 4F 10 0C 89 0D 4F 0D 7E 
B0 13 10 D6 C8 0C C7 0D 0C 09 7F 4C 5F 06 00 18 
5F 4F 1A C4 A9 00 04 00 0D 09 4F 13 A9 00 04 00 
18 83 07 73 F1 23 08 93 EF 23 7A C2 3A D0 08 5A 
40 18 82 4A CC 01 B0 13 4C D8 37 16 10 01 2A 14 
78 4C 09 43 14 3C 0B 4B CE 0D FE 0B BE 00 01 00 
AD 00 01 00 FD 4E FF FF 1F 83 FA 23 04 3C AD 00 
01 00 FD 4C FF FF 58 03 19 53 39 92 E9 37 18 B3 
F6 23 7B 4C 7F 4C CE 0B 5E 0E CB 0F 5B 0F 3B F0 
0F 00 0B DE 3F F0 0F 00 3F 50 03 00 3F 90 12 00 
0C 20 7E 4C 3E B0 80 00 07 24 7A 4C 3E F0 7F 00 
4A 4A 46 18 0A 5A 0E DA 0F 5E 3B 90 FF 0F CB 23 
28 16 10 01 B1 00 0C 00 CD 0C CC 01 3E 40 0C 00 
0F 43 B0 13 1E D6 B2 43 C4 01 CE 01 EE 03 5C 41 
01 00 0F 43 4D 4C 0F 9D 1C 2C 2F 92 12 28 2F 92 
07 24 CD 0F 2D 82 0D 4D ED 0E E2 4D C2 01 0D 3C 
3E 01 06 00 CD 0F 2D 82 0D 4D ED 0E E2 4D C2 01 
04 3C 0D 4F ED 0E E2 4D C2 01 1F 53 4D 4C 0F 9D 
E4 2B 1C 42 C4 01 A1 00 0C 00 10 01 1E 42 D0 03 
CF 0E 0F 5C 82 9F D2 03 1C 2C 1D 42 D2 03 1D 83 
82 4D D6 03 1F 82 D6 03 0F 5E C2 43 29 20 0E 43 
B2 40 10 00 C6 03 03 43 32 D0 18 00 03 43 C2 93 
29 20 04 20 0C 8F 1C 52 D0 03 11 3C 82 9F D2 03 
E4 2B 82 4F D6 03 B2 40 10 00 C6 03 03 43 32 D0 
18 00 03 43 82 43 C6 03 0C 8F 1C 52 D0 03 10 01 
0A 14 F1 03 CA 0C 7C 40 C0 00 7D 40 35 00 CE 01 
1F 43 B0 13 60 D5 F1 F0 1F 00 00 00 D1 93 00 00 
15 24 C2 43 3A 20 E2 D3 18 02 E2 C3 1C 02 E2 D3 
1A 02 0A 93 06 20 0C 43 03 43 32 D0 18 00 03 43 
03 3C CC 0A B0 13 BC D3 E2 C3 1A 02 C2 93 3A 20 
01 20 CC 0A E1 03 0A 16 10 01 B1 00 08 00 3E 40 
E8 03 0F 43 B0 13 32 D7 B0 13 5A D6 3E 40 40 5D 
3F 40 C6 43 B0 13 58 D0 B0 13 D2 D4 81 4C 00 00 
81 4D 02 00 E1 41 06 00 D1 41 01 00 05 00 D1 41 
02 00 04 00 7C 40 40 00 7D 40 0D 00 CE 01 AE 00 
04 00 3F 40 03 00 B0 13 60 D5 0C 43 A1 00 08 00 
10 01 0B 4D 0E 4B 0D 93 1F 30 3B F0 80 7F 1C 24 
5B 02 8B 10 7E D0 80 00 3B 80 7F 00 15 30 3B 90 
20 00 0F 34 3B 80 17 00 05 30 1B 83 08 30 5C 02 
0E 6E FB 3F 5E 01 5C 00 1B 53 01 24 FB 3F 0D 4E 
10 01 3C 43 3D 43 10 01 0C 43 0D 43 10 01 0A 14 
B1 00 0C 00 CA 0C F1 40 80 00 00 00 C1 4A 02 00 
D1 43 01 00 CC 01 B0 13 54 D3 81 4C 0A 00 CC 01 
B0 13 8C CC 7A 90 1C 00 05 24 00 3C 00 3C 00 3C 
00 3C 00 3C B0 13 2E D8 A1 00 0C 00 0A 16 10 01 
0A 14 CA 0D CD 0E CE 0F E2 C2 03 02 03 43 F2 B0 
20 00 01 02 FC 23 92 C3 3C 05 CF 0C 4F DA 82 4F 
2E 05 92 B3 3C 05 FD 27 1B 42 2C 05 4B 4B 4C DA 
B0 13 6C D1 03 43 E2 D2 03 02 CC 0B 0A 16 10 01 
92 43 20 05 B2 D0 00 A9 20 05 B2 D0 80 00 20 05 
C2 43 27 05 C2 4C 26 05 F2 D0 70 00 0B 02 F2 D0 
50 00 05 02 F2 F0 DF 00 05 02 E2 C2 0B 02 E2 D2 
05 02 E2 D2 03 02 92 C3 30 01 92 C3 20 05 10 01 
5D 01 5C 00 5D 01 5C 00 5D 01 5C 00 5D 01 5C 00 
5D 01 5C 00 5D 01 5C 00 5D 01 5C 00 5D 01 5C 00 
5D 01 5C 00 5D 01 5C 00 5D 01 5C 00 5D 01 5C 00 
5D 01 5C 00 5D 01 5C 00 5D 01 5C 00 10 01 2A 14 
0F 93 02 20 0E 93 17 24 09 43 08 43 CB 08 0F 18 
4B 5B 00 18 4B D9 EB 0D CA 08 0F 18 4A 5A 00 18 
4A D9 EA 0C EA 4B 00 00 19 53 08 63 08 9F EE 2B 
02 20 09 9E EB 2B 28 16 10 01 0C 93 02 20 0D 93 
14 24 3B 40 9F 00 1B 83 5C 02 0D 6D FC 2B 12 C3 
5D 00 5C 00 3E 40 06 00 5D 01 5C 00 1E 83 FC 37 
8B 10 0D DB 12 C3 5D 00 5C 00 10 01 F1 03 C1 4C 
00 00 E1 42 01 00 4C 43 7D 42 CE 01 AE 00 01 00 
1F 43 B0 13 60 D5 4C 43 7D 40 06 00 CE 01 1F 43 
B0 13 60 D5 4C 43 E1 03 10 01 E2 C2 03 02 03 43 
F2 B0 20 00 01 02 FC 23 92 C3 3C 05 4C 4C 82 4C 
2E 05 92 B3 3C 05 FD 27 1C 42 2C 05 4C 4C 03 43 
E2 D2 03 02 10 01 0F 14 1F 42 EE 03 2F 83 08 24 
2F 83 0B 20 E2 42 29 20 B1 C0 D0 00 04 00 05 3C 
E2 43 29 20 B1 C0 D0 00 04 00 0F 16 00 13 1F 4C 
01 00 1E 4C 03 00 0E 93 02 20 0F 93 09 24 AD 00 
01 00 CD 43 FF FF 1F 83 0E 73 F9 23 0F 93 F7 23 
10 01 02 12 32 C2 03 43 82 4C D0 04 82 4D D2 04 
82 4E E0 04 82 4F E2 04 1C 42 E4 04 1D 42 E6 04 
32 41 03 43 10 01 7C 40 03 00 B0 13 70 CE 3C 40 
5E C6 3D 40 0D 00 B0 13 7A D4 7C 40 18 00 B0 13 
8C D6 10 01 81 00 00 30 B0 13 48 D8 0C 93 02 24 
B0 13 66 D2 0C 43 B0 13 3C CA 1C 43 B0 13 34 D8 
7C 40 36 00 B0 13 BA D6 7C 40 3A 00 B0 13 BA D6 
7C 40 3B 00 B0 13 BA D6 0C 43 10 01 CF 0D CE 0C 
7C 40 40 00 7D 40 3F 00 B0 13 60 D5 7C 40 35 00 
B0 13 BA D6 0C 43 10 01 E2 B3 1C 02 07 24 B1 C0 
D0 00 00 00 E2 C3 1C 02 D2 43 3A 20 00 13 CF 0C 
CC 0D CD 0F AD 00 05 00 1E 4F 01 00 1F 4F 03 00 
80 00 1E D6 1C 83 82 4C D2 03 82 43 D4 03 82 43 
D6 03 B2 40 14 01 C0 03 10 01 F2 C2 1D 02 D2 43 
19 20 B1 C0 10 00 00 00 00 13 7C 40 34 00 B0 13 
BA D6 0C 43 10 01 32 D0 10 00 FD 3F 03 43 5C 42 
28 20 10 01 03 43 FF 3F 03 43 82 43 C0 03 10 01 
03 43 10 01 5C 43 10 01 1C 43 10 01 10 01 
@ff80
FF FF FF FF FF FF FF FF 
@ffda
0A D8 C8 D7 26 D8 26 D8 26 D8 26 D8 26 D8 26 D8 
26 D8 26 D8 26 D8 26 D8 E6 D6 26 D8 26 D8 26 D8 
26 D8 26 D8 74 D7 
q
