@4400
81 00 00 24 B1 13 F2 06 B1 13 B4 07 0C 93 02 24 
B1 13 B8 04 0C 43 B1 13 00 00 1C 43 B1 13 AA 07 
E2 C3 1C 02 D2 43 11 1C B1 C0 10 00 00 00 00 13 
32 D0 10 00 FD 3F 03 43 81 00 00 24 B0 13 38 46 
0C 93 02 24 B0 13 1A 45 0C 43 B0 13 42 44 1C 43 
B0 13 32 46 4F 14 1F 42 7C FF 4F 13 B1 C0 D0 00 
14 00 4B 16 00 13 C2 43 1C 02 F2 E0 80 00 82 02 
00 13 FF 3F 03 43 B2 40 80 5A 5C 01 D2 43 04 02 
D2 C3 02 02 F2 40 80 00 84 02 F2 40 80 00 82 02 
92 C3 30 01 1E 14 3D 40 44 28 1E 43 1D 83 0E 73 
FD 23 0D 93 FB 23 1D 16 03 43 F2 F0 7F 00 82 02 
1E 14 3D 40 44 28 1E 43 1D 83 0E 73 FD 23 0D 93 
FB 23 1D 16 03 43 F2 D0 80 00 82 02 1E 14 3D 40 
44 28 1E 43 1D 83 0E 73 FD 23 0D 93 FB 23 1D 16 
03 43 F2 F0 7F 00 82 02 E2 D2 02 02 E2 D2 06 02 
E2 D2 18 02 E2 D2 1A 02 E2 C2 1C 02 8C 00 28 46 
0D 43 0E 43 B0 13 F4 45 C2 43 15 1C 03 43 32 D0 
D8 00 03 43 32 C2 03 43 D2 93 15 1C F7 23 5F 42 
14 1C 1F 83 0E 24 1F 83 05 24 3F 80 A8 00 06 24 
D2 E3 02 02 F2 E0 80 00 82 02 05 3C B0 13 10 46 
02 3C D2 E3 02 02 C2 43 15 1C E0 3F 03 43 3A 14 
40 18 1A 42 5C 01 40 18 B2 40 80 5A 5C 01 8F 00 
44 46 9F 00 48 46 25 24 89 00 48 46 8F 00 50 46 
D9 0F 1F 24 CE 09 0F 19 4E 10 0E 4E 0C 4F 0F 19 
4F 10 0C 89 0D 4F 0D 7E B0 13 C2 45 C8 0C C7 0D 
0C 09 7F 4C 5F 06 00 18 5F 4F 44 46 A9 00 04 00 
0D 09 4F 13 A9 00 04 00 18 83 07 73 F1 23 08 93 
EF 23 7A C2 3A D0 08 5A 40 18 82 4A 5C 01 B0 13 
3C 46 37 16 10 01 5D 01 5C 00 5D 01 5C 00 5D 01 
5C 00 5D 01 5C 00 5D 01 5C 00 5D 01 5C 00 5D 01 
5C 00 5D 01 5C 00 5D 01 5C 00 5D 01 5C 00 5D 01 
5C 00 5D 01 5C 00 5D 01 5C 00 5D 01 5C 00 5D 01 
5C 00 10 01 1F 4C 01 00 1E 4C 03 00 0E 93 02 20 
0F 93 09 24 AD 00 01 00 CD 43 FF FF 1F 83 0E 73 
F9 23 0F 93 F7 23 10 01 60 0C 08 1C 60 0D 0C 1C 
60 0E 10 1C 8C 00 08 1C 1F 42 7A FF 4F 13 92 D3 
DA 05 10 01 B2 40 DE C0 00 1C D2 D3 02 1C 32 C2 
03 43 B2 40 04 A5 20 01 FF 3F 03 43 C2 4C 14 1C 
D2 43 15 1C 10 01 03 43 FF 3F 03 43 1C 43 10 01 
10 01 00 00 0E 00 00 00 D0 45 00 00 3E 46 00 00 
08 1C 00 00 81 00 00 24 B0 13 E6 44 0C 43 B0 13 
34 44 1C 43 B0 13 E0 44 4F 14 C2 43 1C 02 B0 13 
C8 44 4B 16 00 13 D2 E3 02 02 92 C3 42 03 00 13 
FF 3F 03 43 B2 40 80 5A 5C 01 D2 D3 04 02 D2 D3 
02 02 92 C3 30 01 1E 14 3D 40 44 28 1E 43 1D 83 
0E 73 FD 23 0D 93 FB 23 1D 16 03 43 D2 C3 02 02 
1E 14 3D 40 44 28 1E 43 1D 83 0E 73 FD 23 0D 93 
FB 23 1D 16 03 43 D2 D3 02 02 1E 14 3D 40 44 28 
1E 43 1D 83 0E 73 FD 23 0D 93 FB 23 1D 16 03 43 
D2 C3 02 02 E2 D2 02 02 E2 D2 06 02 E2 D2 18 02 
E2 D2 1A 02 E2 C2 1C 02 B2 40 10 00 42 03 B2 40 
E7 03 52 03 B2 40 10 01 40 03 03 43 32 D0 D8 00 
03 43 03 43 0C 43 10 01 B2 40 DE C0 00 1C D2 D3 
02 1C 32 C2 03 43 B2 40 04 A5 20 01 FF 3F 03 43 
03 43 FF 3F 03 43 1C 43 10 01 30 44 30 44 30 44 
30 44 30 44 30 44 30 44 30 44 30 44 30 44 18 44 
30 44 30 44 30 44 30 44 30 44 30 44 26 44 30 44 
30 44 30 44 30 44 30 44 30 44 30 44 30 44 30 44 
30 44 04 44 3E 44 3E 44 3E 44 3E 44 3E 44 3E 44 
3E 44 3E 44 3E 44 3E 44 32 44 3E 44 3E 44 3E 44 
3E 44 3E 44 3E 44 3E 44 3E 44 3E 44 20 44 3E 44 
3E 44 3E 44 3E 44 3E 44 3E 44 3E 44 04 44 00 44 
03 44 FF F7 00 00 01 00 FF 3F 02 00 04 44 00 00 
C6 F7 00 00 E6 00 00 00 3A 00 00 00 04 44 00 00 
C6 F7 00 00 4C 02 00 00 3A 00 00 00 01 FF 84 46 
00 00 6A 47 00 00 1F 38 44 00 00 A4 00 70 FF F0 
48 07 01 00 30 05 01 00 8E 07 01 00 00 00 06 00 
00 00 0C 48 00 00 00 1C 00 00 2C 48 00 00 10 1C 
00 00 
@ff80
FF FF FF FF FF FF FF FF FF FF FF FF FF FF FF FF 
@ffc6
30 44 30 44 30 44 30 44 30 44 30 44 30 44 30 44 
30 44 30 44 20 44 30 44 30 44 30 44 30 44 30 44 
30 44 30 44 30 44 30 44 30 44 30 44 30 44 30 44 
30 44 30 44 30 44 30 44 00 44 0A 14 F1 03 B2 40 
80 5A 5C 01 F2 40 A5 00 61 01 B2 40 0C 00 62 01 
B2 40 33 01 64 01 82 43 66 01 8C 00 EC 47 8D 00 
F4 47 8E 00 00 1C 6F 43 B1 13 50 02 82 4C 12 1C 
8C 00 FC 47 8D 00 04 48 8E 00 08 1C B1 13 50 02 
82 4C 14 1C C2 43 11 1C C2 43 10 1C B1 13 6C 07 
E2 D3 02 02 D2 C3 02 02 D2 D3 04 02 E2 D3 06 02 
E2 D3 18 02 E2 C3 1C 02 E2 D3 1A 02 F2 D0 80 00 
82 02 F2 D0 80 00 84 02 92 C3 30 01 E2 C3 1C 02 
03 43 32 D0 18 00 03 43 32 C2 03 43 C2 93 11 1C 
F5 27 D2 E3 02 02 1E 14 3D 40 64 C9 3E 42 1D 83 
0E 73 FD 23 0D 93 FB 23 1D 16 03 43 D2 E3 02 02 
1E 14 3D 40 64 C9 3E 42 1D 83 0E 73 FD 23 0D 93 
FB 23 1D 16 03 43 D2 E3 02 02 1E 14 3D 40 64 C9 
3E 42 1D 83 0E 73 FD 23 0D 93 FB 23 1D 16 03 43 
D2 E3 02 02 B1 13 B0 07 4C 93 C8 27 7C 40 AA 00 
B1 13 1E 07 0D 14 3D 40 1C 4E 1D 83 FE 23 0D 16 
00 3C B1 13 A4 07 7C 40 19 00 B1 13 4C 06 4C 4C 
3C F0 F0 FF 3C 90 A0 00 8F 20 7C 40 15 00 B1 13 
4C 06 4C 93 AB 23 C2 93 10 1C 2E 24 4A 43 6A 93 
1D 2C 4E 4A 5E 06 40 18 1F 4E 04 48 40 18 91 4E 
06 48 00 00 4E 4A 5E 06 40 18 1C 4E FC 47 40 18 
1D 4E FE 47 4E 4A 5E 06 00 18 5E 4E 08 1C B1 13 
A0 03 4C 93 03 20 5A 53 6A 93 E3 2B 2F 43 81 43 
00 00 40 18 1C 42 DE 47 0D 43 8E 00 14 1C B1 13 
A0 03 4C 93 7B 23 2D 3C 4A 43 6A 93 1D 2C 4E 4A 
5E 06 40 18 1F 4E F4 47 40 18 91 4E F6 47 00 00 
4E 4A 5E 06 40 18 1C 4E EC 47 40 18 1D 4E EE 47 
4E 4A 5E 06 00 18 5E 4E 00 1C B1 13 A0 03 4C 93 
03 20 5A 53 6A 93 E3 2B 2F 43 81 43 00 00 40 18 
1C 42 DE 47 0D 43 8E 00 12 1C B1 13 A0 03 4C 93 
4D 23 7C 40 1C 00 B1 13 4C 06 1E 14 3D 40 64 C9 
3E 42 1D 83 0E 73 FD 23 0D 93 FB 23 1D 16 03 43 
D2 E3 02 02 1E 14 3D 40 64 C9 3E 42 1D 83 0E 73 
FD 23 0D 93 FB 23 1D 16 03 43 D2 E3 02 02 1E 14 
3D 40 64 C9 3E 42 1D 83 0E 73 FD 23 0D 93 FB 23 
1D 16 03 43 D2 E3 02 02 C2 43 11 1C D2 E3 10 1C 
C2 93 11 1C 1B 27 25 3F 03 43 4A 14 B2 43 54 01 
40 18 18 42 E0 47 40 18 82 98 E2 47 41 28 49 43 
01 3C 59 53 49 9F 33 2C 4B 49 5B 06 4B 0E 4B 0D 
EB 0C 0A 43 1A 9B 02 00 F4 2B 02 20 28 9B F1 2B 
4B 49 5B 06 4B 0E 4B 0D EB 0C 4A 49 5A 06 4A 0E 
4A 0D EA 0D 27 4A 1A 4A 02 00 27 5B 1A 6B 02 00 
0B 43 0B 9A 03 28 DD 23 08 97 DB 2F 4B 49 5B 06 
4B 0E 4B 0D EB 0E 4A 49 5A 06 4A 0E 4A 0D EA 0C 
07 48 00 18 67 8A 00 18 67 5B E2 47 52 01 49 9F 
02 20 F2 43 52 01 18 53 40 18 82 98 E2 47 BF 2F 
40 18 18 42 E4 47 40 18 17 42 E6 47 40 18 82 97 
EA 47 4E 28 04 20 40 18 82 98 E8 47 49 28 49 43 
01 3C 59 53 49 9F 35 2C 4B 49 5B 06 4B 0E 4B 0D 
EB 0C 17 9B 02 00 F5 2B 02 20 28 9B F2 2B 4B 49 
5B 06 4B 0E 4B 0D EB 0C 4A 49 5A 06 4A 0E 4A 0D 
EA 0D 26 4A 1A 4A 02 00 26 5B 1A 6B 02 00 07 9A 
03 28 DF 23 08 96 DD 2F 4B 49 5B 06 4B 0E 4B 0D 
EB 0C CA 07 0F 18 4A 5A 00 18 4A D8 00 18 6A 8B 
4B 49 5B 06 4B 0E 4B 0D EB 0E 00 18 6A 5B E2 4A 
52 01 49 9F 02 20 F2 43 52 01 18 53 07 63 40 18 
82 97 EA 47 05 28 BB 23 40 18 82 98 E8 47 B7 2F 
1C 42 54 01 0D 43 46 16 10 01 5A 14 B1 00 0C 00 
CA 0F C5 0E C8 0C C7 0D 19 41 28 00 09 93 02 20 
0A 93 37 24 09 93 05 20 3A 90 11 00 02 2C C6 0A 
02 3C 36 40 10 00 F1 40 10 00 02 00 71 05 06 00 
CF 06 6F 52 C1 4F 01 00 C1 47 05 00 CF 08 8F 10 
C1 4F 04 00 C1 48 03 00 CC 01 B1 13 A6 05 81 4C 
0A 00 CC 01 B1 13 30 04 27 93 05 28 03 20 38 90 
00 3F 01 28 03 43 B1 13 C4 06 4C 93 0A 20 0A 86 
09 73 08 56 07 63 0F 46 E5 0F 09 93 CB 23 0A 93 
C9 23 A1 00 0C 00 55 16 10 01 B1 00 0E 00 CD 0C 
CC 01 3E 40 0C 00 0F 43 B1 13 88 06 7C 40 80 00 
B1 13 1E 07 5C 41 01 00 B1 13 1E 07 5C 41 02 00 
B1 13 1E 07 E1 93 01 00 1B 28 5C 41 03 00 B1 13 
1E 07 5C 41 04 00 B1 13 1E 07 5C 41 05 00 B1 13 
1E 07 0D 43 08 3C 0F 4D 00 18 5F 51 06 00 6C 4F 
B1 13 1E 07 1D 53 5F 41 01 00 2F 82 0D 9F F3 2B 
D1 41 0A 00 0D 00 5C 41 0D 00 B1 13 1E 07 D1 41 
0B 00 0C 00 5C 41 0C 00 B1 13 1E 07 A1 00 0E 00 
10 01 3A 14 40 18 1A 42 5C 01 40 18 B2 40 80 5A 
5C 01 8F 00 20 48 9F 00 2C 48 25 24 89 00 32 48 
8F 00 42 48 D9 0F 1F 24 CE 09 0F 19 4E 10 0E 4E 
0C 4F 0F 19 4F 10 0C 89 0D 4F 0D 7E B1 13 3E 06 
C8 0C C7 0D 0C 09 7F 4C 5F 06 00 18 5F 4F 20 48 
A9 00 04 00 0D 09 4F 13 A9 00 04 00 18 83 07 73 
F1 23 08 93 EF 23 7A C2 3A D0 08 5A 40 18 82 4A 
5C 01 B1 13 B8 07 37 16 10 01 2A 14 78 4C 09 43 
14 3C 0B 4B CE 0D FE 0B BE 00 01 00 AD 00 01 00 
FD 4E FF FF 1F 83 FA 23 04 3C AD 00 01 00 FD 4C 
FF FF 58 03 19 53 39 92 E9 37 18 B3 F6 23 7B 4C 
7F 4C CE 0B 5E 0E CB 0F 5B 0F 3B F0 0F 00 0B DE 
3F F0 0F 00 3F 50 03 00 3F 90 12 00 0C 20 7E 4C 
3E B0 80 00 07 24 7A 4C 3E F0 7F 00 4A 4A 46 18 
0A 5A 0E DA 0F 5E 3B 90 FF 0F CB 23 28 16 10 01 
B1 00 0C 00 CD 0C CC 01 3E 40 0C 00 0F 43 B1 13 
88 06 B2 43 54 01 CE 01 EE 03 5C 41 01 00 0F 43 
4D 4C 0F 9D 1C 2C 2F 92 12 28 2F 92 07 24 CD 0F 
2D 82 0D 4D ED 0E E2 4D 52 01 0D 3C 3E 01 06 00 
CD 0F 2D 82 0D 4D ED 0E E2 4D 52 01 04 3C 0D 4F 
ED 0E E2 4D 52 01 1F 53 4D 4C 0F 9D E4 2B 1C 42 
54 01 A1 00 0C 00 10 01 5D 01 5C 00 5D 01 5C 00 
5D 01 5C 00 5D 01 5C 00 5D 01 5C 00 5D 01 5C 00 
5D 01 5C 00 5D 01 5C 00 5D 01 5C 00 5D 01 5C 00 
5D 01 5C 00 5D 01 5C 00 5D 01 5C 00 5D 01 5C 00 
5D 01 5C 00 10 01 0A 14 B1 00 0C 00 CA 0C F1 40 
80 00 00 00 C1 4A 02 00 D1 43 01 00 CC 01 B1 13 
A6 05 81 4C 0A 00 CC 01 B1 13 30 04 7A 90 1C 00 
03 24 B1 13 C4 06 01 3C 4C 43 A1 00 0C 00 0A 16 
10 01 2A 14 0F 93 02 20 0E 93 17 24 09 43 08 43 
CB 08 0F 18 4B 5B 00 18 4B D9 EB 0D CA 08 0F 18 
4A 5A 00 18 4A D9 EA 0C EA 4B 00 00 19 53 08 63 
08 9F EE 2B 02 20 09 9E EB 2B 28 16 10 01 3E 40 
40 42 3F 40 0F 00 92 B3 DC 05 06 20 1E 83 0F 73 
3F 93 F9 23 3E 93 F7 23 0F 93 02 20 0E 93 04 24 
1C 42 CC 05 4C 4C 01 3C 7C 43 10 01 B2 40 00 A5 
A0 05 3F 40 40 04 82 4F A6 05 3F 40 40 04 82 4F 
A4 05 3F 40 13 15 82 4F A8 05 3F 40 01 A5 82 4F 
A0 05 C2 43 A1 05 10 01 3E 40 40 42 3F 40 0F 00 
A2 B3 DC 05 06 20 1E 83 0F 73 3F 93 F9 23 3E 93 
F7 23 0F 93 02 20 0E 93 03 24 4C 4C 82 4C CE 05 
10 01 1F 4C 01 00 1E 4C 03 00 0E 93 02 20 0F 93 
09 24 AD 00 01 00 CD 43 FF FF 1F 83 0E 73 F9 23 
0F 93 F7 23 10 01 B2 40 81 00 C0 05 F2 40 0C 00 
2B 02 F2 F0 F3 00 2D 02 B2 42 C6 05 B2 40 EF 01 
C8 05 D2 C3 C0 05 10 01 CF 0C CC 0D CD 0F AD 00 
05 00 1E 4F 01 00 1F 4F 03 00 80 01 88 06 92 C3 
DC 05 10 01 03 43 FF 3F 03 43 5C 43 10 01 1C 43 
10 01 10 01 
q
